{
   "Animo":[
      "perezoso",
      "desalentada",
      "desalentadas",
      "decaido",
      "desmotivado",
      "desalentado",
      "desalentados",
      "desalento",
      "no tengo ganas",
      "no quiero",
      "estoy cansado",
      "me canso",
      "no tengo alientos",
      "estoy cansada",
      "pena",
      "desaliento",
      "apenado",
      "penoso",
      "penosa",
      "apenada",
      "deprimido",
      "desanimado",
      "decaido",
      "melancolico",
      "me hundo",
      "humillado",
      "depresivo",
      "depresion",
      "me arrepiento",
      "no queria hacerlo",
      "debia hacerlo",
      "me siento mal",
      "estoy deprimido",
      "me deprime",
      "estoy fatal",
      "no puedo mas",
      "me duele",
      "dolor",
      "melancolia",
      "afligido",
      "afligida",
      "triste",
      "desconsolado",
      "sad",
      "emo",
      "nada",
      "tengo un vacio",
      "me ahogo",
      "oscuridad",
      "estoy en el fondo",
      "cayendo",
      "caida",
      "atrapado",
      "atrapada",
      "no tengo a nadie",
      "tristeza",
      "abatimiento",
      "habito",
      "igual",
      "habitos",
      "no quiero hacer",
      "perdida",
      "perdido",
      "perdida",
      "tunel",
      "fragil",
      "miedo",
      "intranquilo",
      "desconsolado  ",
      "desilusionado ",
      "decepcionado",
      "desinteresado",
      "fatigado",
      "cansado",
      "intranquilo",
      "quebrantado",
      "ataque",
      "lloro",
      "libido",
      "lagrimoso",
      "falta",
      "sin amor",
      "nada me sale bien",
      "indigno",
      "me siento mal",
      "soledad",
      "estoy solo",
      "solito",
      "me siento ",
      "miserable",
      "nada motivado",
      "desesperado",
      "desesperanzado",
      "reducido",
      "haptico",
      "no estoy al ciento por ciento",
      "no encuentro calma",
      "muerte",
      "suicida",
      "plan estructurado",
      "plan",
      "planeacion",
      "todo es mi culpa",
      "soy el culpable",
      "soy la culpable",
      "por mi culpa",
      "soy una vergüenza",
      "no me interesa",
      "no me motiva",
      "no hay nada",
      "abrumado",
      "desesperado",
      "desesperada",
      "abrumada",
      "me hundo",
      "no soy capaz",
      "no puedo",
      "todo falla",
      "no hay nada",
      "inhabilidad",
      "soy invisible",
      "encerrado",
      "encerrada",
      "es una tortura",
      "paralizado",
      "desesperanza",
      "es un infierno",
      "peso en el pecho",
      "peso",
      "no puedo luchar ",
      "me arrastra",
      "me odio",
      "quiero morir",
      "me voy a matar",
      "no quiero despertar",
      "no quiero seguir",
      "ojala me muera",
      "culpa",
      "desinteres",
      "llorar",
      "perdida de confianza",       
      "miserable",
      "sensible",
      "pensamiento recurrente",
      "desilusionado",
      "desesperanza",
      "desesperanzado",
      "decepcionado ",
      "fracasado",
      "contrariado",
      "desanimado ",
      "susceptible",
      "desaliento",
      "desalentado",
      "solo",
      "lloro",
      "desesperado",
      "melancolico",
      "insignificante",
      "triste",
      "vacio ",
      "irritable",
      "afligido ",
      "sad",
      "apagado",
      "down ",
      "nostalgico ",
      "decaido",
      "sensible",
      "deplorable ",
      "abatido",
      "inestable"
   ],
   "Apatia":[
      "no tiro",
      "no me dan ganas",
      "pasivo",
      "no siento ",
      "nada de sexo",
      "no quiero nada",
      "dejadez",
      "dejado",
      "vacio",
      "abandono",
      "desinteresado",
      "desanimo",
      "desganado",
      "desaliento",
      "descuidado",
      "no quiero hacer nada",
      "no puedo",
      "me pesa",
      "me da igual",
      "cansado",
      "no me hace nada",
      "no siento lo mismo",
      "no tiene sentido",
      "no disfruto",
      "no me interesa",
      "me aislo",
      "es una agonia",
      "sin ganas",
      "no siento deseo",
      "indiferente",
      "nada motivado",
      "desesperado",
      "desesperanzado",
      "reducido",
      "apatico",
      "no estoy al ciento por ciento",
      "no encuentro calma",
      "no pasa",
      "jamas",
      "tampoco",
      "es comun que no",
      "nadie",
      "ni siquiera",
      "nada",
      "no quiero hacer",
      "sin amor",
      "amor propio",
      "no puedo",
      "dificil",
      "me queda grande",
      "impotente",
      "inferioridad",
      "nada me sale bien",
      "todo me sale mal",
      "sensible",
      "nunca",
      "ninguno",
      "abatimiento",
      "inutilidad",
      "incapacidad",
      "aislado",
      "insatisfecho",
      "solo",
      "vacio",
      "ausente",
      "melancolico",
      "aislamiento",
      "ausente",
      "inferioridad",
      "desalentada",
      "desalentadas",
      "decaido",
      "desmotivado",
      "desalentado",
      "desalentados",
      "desalento",
      "aislamiento",
      "desaliento",
      "desinteresado",
      "sin interes ",
      "apatico",
      "desmotivado",
      "invalidante",
      "insensible",
      "desapegado",
      "desagradecido",
      "despreocupado"
   ],
   "Alimentacion":[
      "indiferente",
      "yo",
      "apetito",
      "desinteres",
      "emocion",
      "abatimiento",
      "dejadez",
      "dejado",
      "vacio",
      "abandono",
      "desinteresado",
      "desanimo",
      "deganado",
      "desaliento",
      "descuidado",
      "todo yo",
      "siempre es igual",
      "siempre a mi",
      "soy",
      "no como",
      "poco como",
      "hambre",
      "vacio",
      "inapetente",
      "no tengo hambre",
      "nada de apetito",
      "desinteresado",
      "fatigado",
      "cansado",
      "intranquilo",
      "nada",
      "no quiero comer",
      "impulso",
      "gloton",
      "goloso",
      "sediento",
      "glotona",
      "hastiado/a",
      "inapetente",
      "fastidiado",
      "repugnante",
      "vomito",
      "insasiable",
      "devoro",
      "lleno",
      "repleto",
      "hambriento",
      "antojado",
      "como mucho",
      "ingiero",
      "pesadez ",
      "atracon"
   ],
   "Descanso":[
      "debil",
      "debiles",
      "debilite",
      "raquitico",
      "debilitado",
      "enclenque",
      "flojo",
      "apagado",
      "debilitada",
      "mamado",
      "debilitados",
      "floja",
      "debilitadas",
      "desalentada",
      "desalentadas",
      "decaido",
      "desmotivado",
      "desalentado",
      "desalentados",
      "desalento",
      "debilidad",
      "desaliento",
      "agitacion",
      "falta de energia",
      "igual",
      "siempre",
      "lo mismo",
      "dia a dia",
      "rutinario",
      "todos los dias",
      "cansado",
      "extenuado",
      "mamado",
      "harto",
      "igual",
      "habitos",
      "no duermo",
      "duermo mucho",
      "levanto tarde",
      "no duermo",
      "insomnio",
      "desvelado",
      "desvelo",
      "sencillo",
      "sensible",
      "cotidiano",
      "extenuacion",
      "habito",
      "sueño",
      "susceptible",
      "nada motivado",
      "desesperado",
      "desesperanzado",
      "reducido",
      "haptico",
      "no estoy al ciento por ciento",
      "no encuentro calma",
      "sensible",
      "agotado",
      "sin ganas",
      "cansado",
      "cansada",
      "exhausto",
      "exhausta",
      "somnoliento",
      "molido",
      "rendido ",
      "saturado",
      "debilitado",
      "pesado",
      "desvanecido",
      "acabado",
      "cargado",
      "cansado"
   ],
   "Actividad_fisica":[
      "desaliento",
      "frustracion",
      "trauma",
      "abatimiento",
      "extenuacion",
      "incapacidad",
      "agitado",
      "debil",
      "debiles",
      "debilite",
      "raquitico",
      "debilitado",
      "enclenque",
      "flojo",
      "apagado",
      "debilitada",
      "mamado",
      "debilitados",
      "floja",
      "debilitadas",
      "desalentada",
      "desalentadas",
      "decaido",
      "desmotivado",
      "desalentado",
      "desalentados",
      "desalento",
      "frustrado",
      "fracasado",
      "fiasco",
      "chasco",
      "traumatizado",
      "afectado",
      "marcado",
      "encadenado",
      "enyugado",
      "atado",
      "nada",
      "no quiero hacer",
      "cansado",
      "extenuado",
      "mamado",
      "harto",
      "no puedo",
      "dificil",
      "me queda grande",
      "impotente",
      "nerviosismo",
      "ansioso",
      "malo",
      "malestar",
      "inmunda",
      "inquieto",
      "preocupado",
      "preocupacion",
      "debilidad",
      "lento",
      "inquieto",
      "pasivo",
      "pausado",
      "fatigado",
      "acelerado",
      "inerte",
      "activo",
      "flojo",
      "tonto",
      "retardado",
      "revuelto",
      "pasmado",
      "callado"
   ],
   "Desaliento":[
      "ausente",
      "ausentes",
      "ausentado",
      "ausencia",
      "alejado",
      "lejano",
      "ausentada",
      "ausento",
      "ausentara",
      "ausente",
      "debil",
      "debiles",
      "debilite",
      "raquitico",
      "debilitado",
      "enclenque",
      "flojo",
      "apagado",
      "debilitada",
      "mamado",
      "debilidad",
      "floja",
      "desalentada",
      "decaido",
      "desmotivado",
      "desalentado",
      "desaliento",
      "desalento",
      "errores",
      "embarrarla",
      "cagarla",
      "tirarla",
      "surrarla",
      "miedo al fracaso",
      "derrotado",
      "abatido",
      "cabizbajo",
      "desanimado",
      "melancolico",
      "decaido",
      "derrumbado",
      "desmoronado",
      "abatimiento",
      "igual",
      "siempre",
      "repetitivo",
      "tedioso",
      "rutinario",
      "rutina ",
      "cansado",
      "extenuado",
      "mamado",
      "harto",
      "monotonia",
      "cotidiano",
      "extenuacion",
      "habito",
      "habitos",
      "habito",
      "desvelo",
      "somnolente",
      "adormecido",
      "somnolento",
      "insomnio",
      "desvelado",
      "desvelo",
      "sencillo",
      "sensible",
      "afligido",
      "amargura",
      "amargado",
      "enfadado",
      "molesto",
      "desinteresado",
      "fatigado",
      "cansado",
      "intranquilo",
      "sueño",
      "susceptible",
      "afliccion",
      "desinteres",
      "apatico",
      "indiferente",
      "aislado",
      "insatisfecho",
      "solo",
      "vacio",
      "ausente",
      "melancolico",
      "negativo",
      "distraido",
      "problemas",
      "disperso",
      "elevado",
      "aislamiento",
      "atencion",
      "nerviosismo",
      "quebrantado",
      "inmunda",
      "inquieto",
      "inunda",
      "desfallecido",
      "nervioso",
      "cargado",
      "aburrido",
      "agobiado",
      "sofocado",
      "inatento",
      "desatento",
      "aburrimiento",
      "agobiado",
      "pesado",
      "agotado",
      "debil ",
      "agotada",
      "dejado",
      "decaido ",
      "decaida",
      "fragil",
      "molido",
      "desmayado",
      "asfixiado",
      "agobiado",
      "desganado ",
      "distante",
      "enfermo",
      "parsimonioso",
      "sueño"
   ],
   "Cargo_de_conciencia":[
      "culpable",
      "culpado",
      "culpada",
      "culpa",
      "culpe",
      "culpar",
      "culpables",
      "errores",
      "embarrarla",
      "cagarla",
      "tirarla",
      "surrarla",
      "frustrado",
      "fracasado",
      "fiasco",
      "chasco",
      "apenado",
      "penoso",
      "penosa",
      "apenada",
      "deprimido",
      "desanimado",
      "decaido",
      "melancolico",
      "hundido",
      "depresivo",
      "lamentar",
      "lamento",
      "lamente",
      "lamento",
      "afligido",
      "afligida",
      "arrepentido",
      "arrepentida",
      "arrepentidos",
      "arrepentidas",
      "arrepintieron",
      "arrepenti",
      "desmoronado",
      "no quiero hacer",
      "confuso",
      "confundo",
      "incomprender",
      "perdido",
      "desvelo",
      "somnolente",
      "adormecido",
      "somnolento",
      "insomnio",
      "desvelado",
      "desvelo",
      "vulnerable",
      "sensible",
      "fragil",
      "afligido",
      "amargura",
      "amargado",
      "enfadado",
      "molesto",
      "miedo",
      "intranquilo",
      "desconsolado  ",
      "desilusionado ",
      "decepcionado",
      "intranquilo",
      "quebrantado",
      "ataque",
      "lloro",
      "libido",
      "lagrimoso",
      "aislado",
      "insatisfecho",
      "solo",
      "vacio",
      "ausente",
      "melancolico",
      "negativo",
      "autocriticar",
      "indigno",
      "inmunda",
      "preocupado",
      "preocupacion",
      "dudo",
      "dudar",
      "incierto",
      "dejadez",
      "dejado",
      "vacio",
      "abandono",
      "desinteresado",
      "desanimo",
      "desganado",
      "desaliento",
      "descuidado",
      "futuro",
      "irresponsabilidad",
      "irresponsable",
      "responsable",
      "responsabilidad",
      "incumplido",
      "aplazar",
      "procrastino",
      "evadir",
      "evitar",
      "rumiar",
      "rumiacion",
      "incapz",
      "inutil",
      "torpe",
      "inepto",
      "incompetente",
      "inhabil",
      "ignorante",
      "insuficiente",
      "inseguro",
      "remordimiento",
      "acusado",
      "derrotado",
      "derrumbado",
      "desorrientado",
      "cabizbajo",
      "desanimado",
      "melancolico",
      "decaido",
      "irritable",
      "culpabilidad",
      "miedo al fracaso",
      "frustracion",
      "pena",
      "tristeza",
      "acusacion",
      "abatimiento",
      "confusion",
      "sueño",
      "susceptible",
      "afliccion",
      "angustia",
      "irritable",
      "llorar",
      "aislamiento",
      "autoestima",
      "nervioso",
      "duda",
      "indiferente",
      "inservible",
      "incompetente",
      "fracasado",
      "incapaz",
      "desastroso",
      "culpable",
      "desilusionado",
      "irresponsable",
      "preocupado",
      "preocupada",
      "inseguro",
      "inutil",
      "insuficiente",
      "quejambroso",
      "reproche",
      "inferoridad",
      "inferior ",
      "incomprendido ",
      "mediocre",
      "decepcionado",
      "decepcionada",
      "tonto",
      "vago"
   ],
   "Atencion_dispersa":[
      "ausente",
      "ausentes",
      "ausentado",
      "ausentados",
      "ausentada",
      "ausentadas",
      "ausento",
      "ausentara",
      "ausente",
      "ausencia",
      "errores",
      "embarrarla",
      "cagarla",
      "tirarla",
      "cerrarla",
      "frustrado",
      "fracasado",
      "fiasco",
      "chasco",
      "frustracion",
      "disperso",
      "traumatizado",
      "afectado",
      "marcado",
      "encadenado",
      "enyugado",
      "atado",
      "trauma",
      "no duermo",
      "duermo mucho",
      "levanto tarde",
      "no duermo",
      "insomnio",
      "desvelado",
      "sueño",
      "distraido",
      "problemas",
      "no concentrado",
      "dudo",
      "dudar",
      "incierto",
      "cargado",
      "duda",
      "confuso",
      "confundo",
      "no entiendo",
      "perdido",
      "bruto",
      "confusion",
      "confundido",
      "confundida",
      "distraido ",
      "desatento",
      "olvidadizo ",
      "incoherente",
      "descuidado",
      "embolatado",
      "desconcentrado",
      "despistado",
      "desordenado",
      "desmemoriado ",
      "equivocado",
      "desorientado",
      "descoordinado",
      "torpe",
      "ido",
      "englobado"
   ],
   "Ideas_suicidas":[
      "desvelo",
      "sensible",
      "fragil",
      "miedo",
      "intranquilo",
      "desconsolado  ",
      "desilusionado ",
      "decepcionado",
      "susceptible",
      "sosobra",
      "aislado",
      "insatisfecho",
      "solo",
      "vacio",
      "ausente",
      "melancolico",
      "negativo",
      "aislamiento",
      "me siento ",
      "miserable",
      "nada motivado",
      "desesperado",
      "desesperanzado",
      "reducido",
      "apatico",
      "no estoy al ciento por ciento",
      "no encuentro calma",
      "sensible",
      "tristeza",
      "melancolia",
      "afligido",
      "afligida",
      "triste",
      "desconsolado",
      "sad",
      "emo",
      "estorbo",
      "basura",
      "tortura",
      "dolor",
      "problema",
      "muero",
      "morir",
      "muerte",
      "desaparecer",
      "harto",
      "suicidarme",
      "suicidio",
      "matarme",
      "desaparecer",
      "down",
      "sin futuro",
      "morir ",
      "perdido",
      "destruido",
      "aliviar dolor",
      "golpearme",
      "sin esperanza",
      "dolor",
      "muerte ",
      "llegar al final",
      "colgarme",
      "lanzarme",
      "derrotado",
      "rendido",
      "impotente",
      "desbordado ",
      "desesperado",
      "desesperada",
      "quebrantado",
      "sufrimiento",
      "hacerme daño"
   ]
}